Nashrah_Ahmed_HW01
…
Nashrah_Ahmed_HW01

Nashrah Ahmed

September 19, 2017

data(package = "fivethirtyeight")

For this assignment, Ill be using the dataset titled bad_drivers. The dataset contains statistics about the degree to which certain types of fatal collisions occur by state.

Reference link with additional background: https://fivethirtyeight.com/features/which-state-has-the-worst-drivers/

bad_drivers

## # A tibble: 51 x 8
##    state                num_drivers perc_~ perc_~ perc_~ perc~ insu~ loss~
##    <chr>                      <dbl>  <int>  <int>  <int> <int> <dbl> <dbl>
##  1 Alabama                    18.8      39     30     96    80   785   145
##  2 Alaska                     18.1      41     25     90    94  1053   134
##  3 Arizona                    18.6      35     28     84    96   899   110
##  4 Arkansas                   22.4      18     26     94    95   827   142
##  5 California                 12.0      35     28     91    89   878   166
##  6 Colorado                   13.6      37     28     79    95   836   140
##  7 Connecticut                10.8      46     36     87    82  1069   167
##  8 Delaware                   16.2      38     30     87    99  1138   151
##  9 District of Columbia        5.90     34     27    100   100  1274   136
## 10 Florida                    17.9      21     29     92    94  1160   144
## # ... with 41 more rows
…
